<svg width="49" height="53" viewBox="0 0 49 53" fill="none" xmlns="http://www.w3.org/2000/svg">
<path d="M15.8884 32.1885C15.5086 32.1885 15.2514 32.2282 15.1187 32.268V34.9025C15.2759 34.9423 15.4739 34.9533 15.7434 34.9533C16.7336 34.9533 17.3461 34.4101 17.3461 33.498C17.3461 32.6787 16.8194 32.1885 15.8884 32.1885Z" fill="black"/>
<path d="M28.5832 4.4165H12.2498C11.1669 4.4165 10.1283 4.88183 9.36248 5.71012C8.59671 6.5384 8.1665 7.6618 8.1665 8.83317V44.1665C8.1665 45.3379 8.59671 46.4613 9.36248 47.2896C10.1283 48.1178 11.1669 48.5832 12.2498 48.5832H36.7498C37.8328 48.5832 38.8714 48.1178 39.6372 47.2896C40.403 46.4613 40.8332 45.3379 40.8332 44.1665V17.6665L28.5832 4.4165ZM18.4361 35.565C17.797 36.2121 16.8558 36.5058 15.7554 36.5058C15.5104 36.5058 15.2878 36.4903 15.1184 36.4638V39.6549H13.2686V30.8503C14.103 30.7142 14.9464 30.6529 15.7901 30.667C16.9395 30.667 17.7623 30.9033 18.3115 31.3803C18.8383 31.8308 19.1935 32.5728 19.1935 33.4473C19.1935 34.3218 18.9261 35.0615 18.4361 35.565ZM27.2193 39.6571H25.2593L23.4974 36.2121C23.0074 35.2581 22.4684 34.1075 22.0662 33.0608L22.0274 33.074C22.0764 34.2533 22.1009 35.512 22.1009 36.9673V39.6571H20.3859V30.731H22.5643L24.2793 34.0015C24.7693 34.9423 25.2573 36.0553 25.6248 37.0601H25.6636C25.5449 35.824 25.4917 34.5817 25.5043 33.339V30.7288H27.2193V39.6571ZM35.731 39.2463C34.842 39.5646 33.9132 39.7344 32.9768 39.7498C31.4721 39.7498 30.3819 39.3391 29.6203 38.5441C28.8629 37.7756 28.4464 36.6118 28.4586 35.3C28.4709 32.332 30.4656 30.6383 33.1728 30.6383C34.2365 30.6383 35.0593 30.8657 35.4615 31.0755L35.0716 32.6898C34.6183 32.4778 34.0548 32.3055 33.1504 32.3055C31.5946 32.3055 30.4186 33.2595 30.4186 35.194C30.4186 37.0336 31.4844 38.1201 33.0136 38.1201C33.4423 38.1201 33.7853 38.0671 33.9323 37.9854V36.1171H32.6583V34.5426H35.731V39.2463ZM28.5832 19.8748H26.5415V8.83317L36.7498 19.8748H28.5832Z" fill="black"/>
</svg>
